{
	"dirs": {
		"intermediate": "build",
		"output": "out"
	},
	"product": "Queen.html",
	"gitVersionFile": "",
	"sources": {
		"externalModule": {
			"js": [
				"jquery.easing"
			],
			"css": []
		},
		"module": {
			"css": [],
			"twee": [],
			"ts": []
		},
		"story": {
			"css": ["src/002-ASSETS/CSS/**/*.css"],
			"twee": ["src/**/*.twee"],
			"ts": ["./tsconfig.json"],
			"media": [
				"src/002-ASSETS/BGM",
				"src/002-ASSETS/FNT",
				"src/002-ASSETS/IMG"
			]
		},
		"themes": {
			"baseDir": "src/002-ASSETS/THEME",
			"outSubDir": "themes"
		},
		"head": ""
	},
	"options": {
		"css": {
			"autoprefix": true
		},
		"twee": {
			"environment": {}
		}
	}
}
